<svg width="36" height="36" viewBox="0 0 36 36" fill="none" xmlns="http://www.w3.org/2000/svg">
<rect width="36" height="36" rx="18" fill="#58BD79"/>
<path d="M17.1415 22.248L18.0508 18.824L20.2037 18.0374L20.7392 16.0251L20.7209 15.9752L18.6017 16.7494L20.1286 11H15.7982L13.8014 18.5031L12.1342 19.1122L11.5833 21.1867L13.2493 20.5782L12.0724 25.0001H23.5971L24.3359 22.248H17.1415Z" fill="white"/>
</svg>
